digraph G {
"local_origin" -> "local_origin_ned"[label="Broadcaster: /play_1553773102918663064\nAverage rate: 10000.000 Hz\nMost recent transform: 0.000 ( 1553773154.302 sec old)\nBuffer length: 0.000 sec\n"];
"fcu" -> "fcu_frd"[label="Broadcaster: /play_1553773102918663064\nAverage rate: 10000.000 Hz\nMost recent transform: 0.000 ( 1553773154.302 sec old)\nBuffer length: 0.000 sec\n"];
"rb1_base_map" -> "rb1_base_odom"[label="Broadcaster: /play_1553773102918663064\nAverage rate: 40.090 Hz\nMost recent transform: 1553350654.902 ( 422499.399 sec old)\nBuffer length: 4.939 sec\n"];
"rb1_base_odom" -> "rb1_base_base_footprint"[label="Broadcaster: /play_1553773102918663064\nAverage rate: 50.203 Hz\nMost recent transform: 1553350654.837 ( 422499.464 sec old)\nBuffer length: 4.940 sec\n"];
"rb1_base_tail_link" -> "rb1_base_tail_motor_link"[label="Broadcaster: /play_1553773102918663064\nAverage rate: 20.001 Hz\nMost recent transform: 1553350654.809 ( 422499.493 sec old)\nBuffer length: 4.900 sec\n"];
"rb1_base_base_link" -> "rb1_base_left_wheel_link"[label="Broadcaster: /play_1553773102918663064\nAverage rate: 32.520 Hz\nMost recent transform: 1553350654.837 ( 422499.465 sec old)\nBuffer length: 4.920 sec\n"];
"rb1_base_base_link" -> "rb1_base_right_wheel_link"[label="Broadcaster: /play_1553773102918663064\nAverage rate: 32.520 Hz\nMost recent transform: 1553350654.837 ( 422499.465 sec old)\nBuffer length: 4.920 sec\n"];
edge [style=invis];
 subgraph cluster_legend { style=bold; color=black; label ="view_frames Result";
"Recorded at time: 1553773154.302"[ shape=plaintext ] ;
 }->"local_origin";
edge [style=invis];
 subgraph cluster_legend { style=bold; color=black; label ="view_frames Result";
"Recorded at time: 1553773154.302"[ shape=plaintext ] ;
 }->"fcu";
edge [style=invis];
 subgraph cluster_legend { style=bold; color=black; label ="view_frames Result";
"Recorded at time: 1553773154.302"[ shape=plaintext ] ;
 }->"rb1_base_map";
edge [style=invis];
 subgraph cluster_legend { style=bold; color=black; label ="view_frames Result";
"Recorded at time: 1553773154.302"[ shape=plaintext ] ;
 }->"rb1_base_tail_link";
edge [style=invis];
 subgraph cluster_legend { style=bold; color=black; label ="view_frames Result";
"Recorded at time: 1553773154.302"[ shape=plaintext ] ;
 }->"rb1_base_base_link";
}